pricing-range--narrow.svg<?xml version="1.0" encoding="UTF-8"?>
<svg width="438px" height="20px" viewBox="0 0 438 20" version="1.1" xmlns="http://www.w3.org/2000/svg" xmlns:xlink="http://www.w3.org/1999/xlink">
    <!-- Generator: Sketch 58 (84663) - https://sketch.com -->
    <title>Group 6</title>
    <desc>Created with Sketch.</desc>
    <defs>
        <polygon id="path-1" points="0 6.66666667 438 0 438 20 0 13.3333333"></polygon>
    </defs>
    <g id="Page-1" stroke="none" stroke-width="1" fill="none" fill-rule="evenodd">
        <g id="Appreciation-calculator-compact" transform="translate(-131.000000, -289.000000)">
            <g id="Group-13" transform="translate(100.000000, 97.000000)">
                <g id="Group" transform="translate(30.000000, 22.000000)">
                    <g id="Group-6" transform="translate(1.000000, 170.000000)">
                        <mask id="mask-2" fill="white">
                            <use xlink:href="#path-1"></use>
                        </mask>
                        <use id="Rectangle-6" fill="#DEE3E8" fill-rule="nonzero" xlink:href="#path-1"></use>
                        <rect id="Rectangle-6" fill="#E4ECF3" fill-rule="nonzero" mask="url(#mask-2)" x="0" y="-20" width="109.749431" height="53"></rect>
                        <rect id="Rectangle-6" fill="#F1DCBC" fill-rule="nonzero" mask="url(#mask-2)" x="106.756264" y="-20" width="109.749431" height="53"></rect>
                        <rect id="Rectangle-6" fill="#D9F2E3" fill-rule="nonzero" mask="url(#mask-2)" x="216.505695" y="-20" width="109.749431" height="53"></rect>
                        <rect id="Rectangle-6" fill="#D3E1EF" fill-rule="nonzero" mask="url(#mask-2)" x="326.255125" y="-20" width="111.744875" height="53"></rect>
                    </g>
                </g>
            </g>
        </g>
    </g>
</svg>
